<?xml version="1.0" encoding="utf-8"?>
<!-- Generator: Adobe Illustrator 21.0.0, SVG Export Plug-In . SVG Version: 6.00 Build 0)  -->
<svg version="1.1" id="Слой_1" xmlns="http://www.w3.org/2000/svg" xmlns:xlink="http://www.w3.org/1999/xlink" x="0px" y="0px"
	 viewBox="0 0 281 274" xml:space="preserve">

<g>
	<path class="advantages-st0" d="M139.9,264.4C9.5,263.7-22.8,207.1,43,94.5c65.8-112.6,131-112.2,195.6,1.1S270.3,265.1,139.9,264.4z"/>
	<path class="advantages-st1" d="M142.3,271.9c-0.8,0-1.6,0-2.4,0l0,0c-33.3-0.2-60.8-4-81.9-11.4c-22-7.8-37.7-19.6-46.6-35.4
		S0.1,189.9,4.7,167c4.3-21.9,15-47.5,31.8-76.3C53.3,62,70.4,40,87.4,25.5C105,10.5,123,2.8,141,2.8c0.1,0,0.2,0,0.3,0
		c18.1,0.1,36.1,7.9,53.7,23.3c16.8,14.7,33.6,36.8,50.1,65.7c16.5,28.9,26.9,54.7,31,76.6c4.3,22.9,1.8,42.5-7.3,58.1
		c-9.1,15.6-24.9,27.3-47,34.8C201.2,268.4,174.5,271.9,142.3,271.9z M139.9,256.9c0.8,0,1.6,0,2.4,0c60.6,0,98.9-12.8,113.6-38
		c14.9-25.5,6.9-65.8-23.8-119.7S170.8,18,141.2,17.8c-0.1,0-0.2,0-0.3,0c-29.5,0-60.3,27.1-91.5,80.5
		C18.2,151.8,9.7,192,24.4,217.7C39,243.4,77.9,256.6,139.9,256.9L139.9,256.9z"/>
</g>
</svg>
