<svg 
 xmlns="http://www.w3.org/2000/svg"
 xmlns:xlink="http://www.w3.org/1999/xlink"
 width="1527px" height="639px">
<path fill-rule="evenodd"  fill="rgb(151, 40, 99)"
 d="M1526.258,370.024 L1523.242,371.764 C1522.834,372.000 1522.166,372.000 1521.758,371.764 L1518.742,370.024 C1518.334,369.788 1518.000,369.211 1518.000,368.740 L1518.000,365.260 C1518.000,364.788 1518.334,364.211 1518.742,363.975 L1521.758,362.235 C1522.166,362.000 1522.834,362.000 1523.242,362.235 L1526.258,363.975 C1526.666,364.211 1527.000,364.788 1527.000,365.260 L1527.000,368.740 C1527.000,369.211 1526.666,369.788 1526.258,370.024 ZM1379.737,282.599 C1379.056,282.999 1377.943,282.999 1377.263,282.599 L1372.237,279.641 C1371.556,279.241 1371.000,278.259 1371.000,277.458 L1371.000,271.542 C1371.000,270.741 1371.556,269.758 1372.237,269.358 L1377.263,266.400 C1377.943,265.999 1379.056,265.999 1379.737,266.400 L1384.763,269.358 C1385.443,269.758 1386.000,270.741 1386.000,271.542 L1386.000,277.458 C1386.000,278.259 1385.443,279.241 1384.763,279.641 L1379.737,282.599 ZM1176.561,609.340 C1175.427,610.000 1173.572,610.000 1172.439,609.340 L1164.061,604.468 C1162.927,603.809 1162.000,602.191 1162.000,600.872 L1162.000,591.128 C1162.000,589.809 1162.927,588.190 1164.061,587.531 L1172.439,582.659 C1173.572,582.000 1175.427,582.000 1176.561,582.659 L1184.939,587.531 C1186.072,588.190 1187.000,589.809 1187.000,591.128 L1187.000,600.872 C1187.000,602.191 1186.072,603.809 1184.939,604.468 L1176.561,609.340 ZM1133.737,15.623 C1133.056,16.000 1131.943,16.000 1131.263,15.623 L1126.237,12.839 C1125.556,12.462 1125.000,11.537 1125.000,10.784 L1125.000,5.215 C1125.000,4.462 1125.556,3.537 1126.237,3.161 L1131.263,0.376 C1131.943,-0.000 1133.056,-0.000 1133.737,0.376 L1138.763,3.161 C1139.443,3.537 1140.000,4.462 1140.000,5.215 L1140.000,10.784 C1140.000,11.537 1139.443,12.462 1138.763,12.839 L1133.737,15.623 ZM1069.737,371.623 C1069.056,372.000 1067.943,372.000 1067.263,371.623 L1062.237,368.839 C1061.556,368.462 1061.000,367.537 1061.000,366.784 L1061.000,361.215 C1061.000,360.462 1061.556,359.537 1062.237,359.161 L1067.263,356.376 C1067.943,356.000 1069.056,356.000 1069.737,356.376 L1074.763,359.161 C1075.443,359.537 1076.000,360.462 1076.000,361.215 L1076.000,366.784 C1076.000,367.537 1075.443,368.462 1074.763,368.839 L1069.737,371.623 ZM1028.561,253.340 C1027.427,254.000 1025.572,254.000 1024.439,253.340 L1016.061,248.468 C1014.927,247.809 1014.000,246.190 1014.000,244.872 L1014.000,235.127 C1014.000,233.809 1014.927,232.190 1016.061,231.531 L1024.439,226.659 C1025.572,226.000 1027.427,226.000 1028.561,226.659 L1036.939,231.531 C1038.072,232.190 1039.000,233.809 1039.000,235.127 L1039.000,244.872 C1039.000,246.190 1038.072,247.809 1036.939,248.468 L1028.561,253.340 ZM823.737,638.600 C823.056,639.000 821.943,639.000 821.263,638.600 L816.237,635.642 C815.556,635.241 815.000,634.259 815.000,633.458 L815.000,627.542 C815.000,626.741 815.556,625.759 816.237,625.358 L821.263,622.400 C821.943,622.000 823.056,622.000 823.737,622.400 L828.763,625.358 C829.443,625.759 830.000,626.741 830.000,627.542 L830.000,633.458 C830.000,634.259 829.443,635.241 828.763,635.642 L823.737,638.600 ZM708.242,335.764 C707.834,336.000 707.166,336.000 706.758,335.764 L703.742,334.024 C703.334,333.789 703.000,333.211 703.000,332.740 L703.000,329.260 C703.000,328.789 703.334,328.210 703.742,327.975 L706.758,326.235 C707.166,326.000 707.834,326.000 708.242,326.235 L711.258,327.975 C711.666,328.210 712.000,328.789 712.000,329.260 L712.000,332.740 C712.000,333.211 711.666,333.789 711.258,334.024 L708.242,335.764 ZM679.242,15.764 C678.834,16.000 678.166,16.000 677.758,15.764 L674.742,14.024 C674.334,13.789 674.000,13.211 674.000,12.740 L674.000,9.259 C674.000,8.789 674.334,8.211 674.742,7.975 L677.758,6.235 C678.166,6.000 678.834,6.000 679.242,6.235 L682.258,7.975 C682.666,8.211 683.000,8.789 683.000,9.259 L683.000,12.740 C683.000,13.211 682.666,13.789 682.258,14.024 L679.242,15.764 ZM361.561,573.340 C360.427,574.000 358.572,574.000 357.439,573.340 L349.061,568.468 C347.927,567.809 347.000,566.190 347.000,564.872 L347.000,555.128 C347.000,553.809 347.927,552.191 349.061,551.531 L357.439,546.659 C358.572,546.000 360.427,546.000 361.561,546.659 L369.939,551.531 C371.072,552.191 372.000,553.809 372.000,555.128 L372.000,564.872 C372.000,566.190 371.072,567.809 369.939,568.468 L361.561,573.340 ZM8.737,602.600 C8.057,603.000 6.943,603.000 6.263,602.600 L1.237,599.641 C0.557,599.241 0.000,598.259 0.000,597.458 L0.000,591.542 C0.000,590.741 0.557,589.759 1.237,589.358 L6.263,586.400 C6.943,586.000 8.057,586.000 8.737,586.400 L13.763,589.358 C14.443,589.759 15.000,590.741 15.000,591.542 L15.000,597.458 C15.000,598.259 14.443,599.241 13.763,599.641 L8.737,602.600 Z"/>
</svg>