<?xml version="1.0" encoding="utf-8"?>
<!-- Generator: Adobe Illustrator 21.0.0, SVG Export Plug-In . SVG Version: 6.00 Build 0)  -->
<svg version="1.1" id="Слой_1" xmlns="http://www.w3.org/2000/svg" xmlns:xlink="http://www.w3.org/1999/xlink" x="0px" y="0px"
	 viewBox="0 0 1920 110" style="enable-background:new 0 0 1920 110;" xml:space="preserve">
<style type="text/css">
	.st0{fill:#FF0000;}
	.st1{opacity:0.502;fill:#FFFFFF;enable-background:new    ;}
	.st2{opacity:0.749;fill:#FFFFFF;enable-background:new    ;}
	.st3{opacity:0.902;fill:#F6F9FB;enable-background:new    ;}
</style>
<rect x="-18" y="184" class="st0" width="1920" height="110"/>
<path class="st1" d="M0,71v39C1597.4,21.5,1771.9,11.8,1920,3.4V1.1h-69.5c-25,0.7-54.2,1.6-91,2.7c-0.9,0-1.7,0.1-2.6,0.1
	c-8.1,0.2-16.6,0.5-25.5,0.8c-0.2,0-0.4,0-0.6,0c-189.5,6-560.1,19.1-1446.6,54.8c-3.5,0.1-7,0.3-10.5,0.4c-3.5,0.1-7,0.3-10.5,0.4
	c-6.7,0.3-13.5,0.5-20.3,0.8c-4.2,0.2-8.5,0.3-12.7,0.5c-1.3,0-2.7,0.1-4,0.2c-2.6,0.1-5.1,0.2-7.7,0.3c-4.4,0.2-8.7,0.4-13.1,0.5
	c-2.3,0.1-4.6,0.2-6.8,0.3c-3.4,0.1-6.9,0.3-10.3,0.4c-6.9,0.3-13.8,0.6-20.8,0.8c-3.5,0.1-7,0.3-10.5,0.4c-4.7,0.2-9.3,0.4-14,0.6
	c-0.9,0-1.8,0.1-2.7,0.1c-6.2,0.3-12.5,0.5-18.8,0.8c-3.7,0.2-7.4,0.3-11.1,0.4c-3.7,0.1-7.4,0.3-11.1,0.4c-3.3,0.1-6.6,0.3-9.9,0.4
	c-0.1,0-0.1,0-0.2,0c-1.9,0.1-3.8,0.2-5.6,0.2c-1.9,0.1-3.8,0.2-5.7,0.2c-0.3,0-0.7,0-1,0c-3.7,0.2-7.3,0.3-11,0.5
	c-0.8,0-1.5,0.1-2.3,0.1c-1.1,0.1-2.3,0.1-3.4,0.1C54,68.8,47.9,69,41.8,69.3c-3.4,0.1-6.7,0.3-10.1,0.4c-4.1,0.2-8.3,0.3-12.4,0.5
	c0,0-0.1,0-0.1,0c-2.1,0.1-4.2,0.2-6.3,0.3c-2.1,0.1-4.2,0.2-6.3,0.3c-1,0.1-2,0.1-3.1,0.1C2.4,70.9,1.2,70.9,0,71L0,71z"/>
<path class="st2" d="M0,71V32.4v-1.1C449,20.6,773.8,13.7,1021.3,8.6c130.9-2.6,240.1-4.7,332.3-6.4h0.2c6.2-0.1,12.2-0.2,18.2-0.3
	c0.3,0,0.5,0,0.8,0c14.4-0.3,28.3-0.5,41.9-0.8H1833c-20.8,0.8-44.8,1.6-73.5,2.7c-0.9,0-1.7,0.1-2.6,0.1c-7,0.3-14.2,0.5-21.8,0.8
	c-0.2,0-0.4,0-0.6,0c-41.2,1.5-91.3,3.4-153.7,5.7c-125.8,4.6-301.7,11.1-565.6,20.9c-190.7,7.2-427.2,16-730.4,28.1
	c-3.5,0.1-7,0.3-10.5,0.4c-3.5,0.1-7,0.3-10.6,0.4c-6.8,0.3-13.6,0.5-20.4,0.8c-4.2,0.2-8.5,0.3-12.8,0.5c-1.3,0-2.7,0.1-4,0.2
	c-2.6,0.1-5.2,0.2-7.7,0.3c-4.5,0.2-9.1,0.4-13.6,0.5c-2.3,0.1-4.6,0.2-6.8,0.3c-3.4,0.1-6.9,0.3-10.3,0.4
	c-6.9,0.3-13.8,0.6-20.8,0.8c-3.5,0.1-7,0.3-10.5,0.4c-4.7,0.2-9.3,0.4-14,0.6c-0.9,0-1.8,0.1-2.7,0.1c-6.2,0.3-12.5,0.5-18.8,0.8
	c-3.7,0.2-7.4,0.3-11.1,0.4c-1,0-1.9,0.1-2.9,0.1c-2.7,0.1-5.3,0.2-8,0.3c-3.3,0.2-6.6,0.3-10,0.4h-0.2c-2,0.1-3.9,0.2-5.9,0.2
	c-1.9,0.1-3.8,0.2-5.7,0.2c-0.3,0-0.7,0-1,0c-3.7,0.2-7.3,0.3-11,0.5c-0.8,0-1.5,0.1-2.3,0.1c-1.1,0.1-2.3,0.1-3.4,0.1
	c-6,0.3-12.1,0.5-18.2,0.8c-3.4,0.1-6.7,0.3-10.1,0.4c-4.2,0.2-8.4,0.3-12.5,0.5c0,0-0.1,0-0.1,0c-2.1,0.1-4.2,0.2-6.3,0.3
	c-2.1,0.1-4.1,0.2-6.2,0.3c-1,0.1-2,0.1-3.1,0.1C2.4,70.9,1.2,70.9,0,71L0,71z"/>
<path class="st3" d="M0,32.4c661.4-15.2,1080-24,1353.6-30.1h0.2c4.9-0.1,9.7-0.2,14.5-0.3c0.3,0,0.5,0,0.8,0
	c11.4-0.3,22.6-0.5,33.5-0.8H0v30.1V32.4z"/>
</svg>
